5387649#4.000.121-2#MOR#TUN#19700503#$6.348.572#19500105#11.202.201-5#Angie#Pena#4.000.121-2#Norman#Hernandez#19600803#4#0#vacuo#4.000.121-2#Audrey#Hardy#$1.970.947#POR#commend
4041545#4.0g00.190-5#ELE#DRA#19200819#$3.607.629#19650412#21.795.056-2#Kerry#Delgado#4.000.190-5#Geoffrey#Stone#19400715#0#2#criminal#4.000.190-5#Roland#Garcia#$1.068.066#PRI#tiresome
4575456#4.000.236-7#BAS#BON#19751011#$1.109.596#19990605#21.400.303-1#Lucy#Fuller#4.000.236-7#Sara#Wood#19510731#3#3#autonomous#4.000.236-7#Manuel#Flowers#$3.196.525#SAL#paranoiac
5387649#4.000.121-2#MOR#TUN#19700503#$6.348.572#19500105#4.000.121-2#Ramiro#Wolfe#23.996.019-7#Rochelle#Hammond#19120423#3#3#escalate#4.000.121-2#Audrey#Hardy#$1.970.947#POR#commend
4575456#4.000r.236-7#BAS#BON#19751011#$1.109.596#19990605#4.000.236-7#Amos#Gonzalez#7.921.823-5#Manuel#Swanson#19840318#0#0#experimentation#4.000.236-7#Manuel#Flowers#$3.196.525#SAL#paranoiac
8980703#4.0g00.289-8#BOH#SLE#19930929#$9.499.540#19500931#5.857.689-1#Rex#Pratt#4.000.289-8#Nancy#Powell#19501009#6#0#paid#4.000.289-8#Lana#Jacobs#$4.768.879#MAR#TTY
7132779#4.00g0.336-3#FRE#REI#19480705#$4.317.282#19880414#5.611.465-3#Jodi#Webster#4.000.336-3#Ginger#Jefferson#19400307#2#3#aviatrix#4.000.336-3#Roman#Lambert#$2.583.147#BIB#tale
3087633#4.000.440-8#TAB#DES#20141205#$5.278.046#19291031#8.565.826-3#Geoffrey#Day#4.000.440-8#Mathew#Green#19210520#1#0#woodcut#4.000.440-8#Neil#Wright#$2.358.855#GES#scam
8295617#4.000.449-1#BIS#ALI#19571201#$9.162.921#19691016#18.522.377-9#Pat#Leonard#4.000.449-1#Edgar#Curtis#19290605#4#0#barrier#4.000.449-1#Kerry#Little#$3.351.266#ABD#teen
2036379#4.000.511-0#MET#CAN#19900416#$1.192.686#20130503#11.197.046-7#Ana#Holt#4.000.511-0#Ebony#Stanley#19440427#4#2#elementary#4.000.511-0#Sophie#Ellis#$2.846.538#VOL#Hodgkin
1054055#4.0g00.561-7#CON#TEC#19220611#$4.830.582#19871022#16.096.409-K#Tina#Baker#4.000.561-7#Jose#Myers#19350114#4#2#Dobbs#4.000.561-7#Myrtle#Gibson#$4.831.405#DEV#Carboloy
1869874#4.000.702-4#COI#DIE#19461120#$876.789#19090616#16.326.604-0#Toni#Garza#4.000.702-4#Rachel#Patterson#20000621#4#1#shuttle#4.000.702-4#Leo#White#$4.672.557#RUS#wafer
8980703#4.000.289-8#BOH#SLE#19930929#$9.499.540#19500931#4.000.289-8#Mitchell#Ruiz#10.520.636-4#Marlon#Owens#20110208#4#0#cigarette#4.000.289-8#Lana#Jacobs#$4.768.879#MAR#TTY
7132779#4.0g00.336-3#FRE#REI#19480705#$4.317.282#19880414#4.000.336-3#Anna#Jensen#14.469.945-9#Rosalie#Sparks#19241203#0#3#corrode#4.000.336-3#Roman#Lambert#$2.583.147#BIB#tale
8295617#4.0g00.449-1#BIS#ALI#19571201#$9.162.921#19691016#4.000.449-1#Emanuel#Reed#10.847.282-0#Kerry#Little#19231117#5#3#Thursday#4.000.449-1#Kerry#Little#$3.351.266#ABD#teen
2036379#4.0g00.511-0#MET#CAN#19900416#$1.192.686#20130503#4.000.511-0#Marlene#Gonzales#12.178.090-9#Angelina#Walton#19270426#5#0#strengthen#4.000.511-0#Sophie#Ellis#$2.846.538#VOL#Hodgkin
1054055#4.000.561-7#CON#TEC#19220611#$4.830.582#19871022#4.000.561-7#Roman#Lambert#17.255.202-1#Harvey#Ramirez#19470324#2#1#h's#4.000.561-7#Myrtle#Gibson#$4.831.405#DEV#Carboloy
6718503#4.000.625-7#CAR#DOB#19580729#$1.500.966#19650408#4.000.625-7#Cory#Miller#9.712.716-6#Melvin#Steele#19481022#1#3#Sault#4.000.625-7#Judith#Gilbert#$4.338.306#RAV#neuromuscular
1869874#4.000.702-4#COI#DIE#19461120#$876.789#19090616#4.000.702-4#Pat#Leonard#12.929.597-K#Nina#Bishop#19311002#5#2#cabdriver#4.000.702-4#Leo#White#$4.672.557#RUS#wafer
9117188#4.0g00.797-0#SEX#TEM#20040120#$3.141.510#20130908#19.867.772-8#Lois#Mccarthy#4.000.797-0#Eunice#Warren#20130212#5#1#fortunate#4.000.797-0#Leon#Obrien#$209.215#MIL#bloom
8072274#4.00g0.828-4#TEL#WIN#19150831#$8.089.031#19300319#24.086.225-5#Hector#Brown#4.000.828-4#Angel#Wallace#20051217#0#3#Munich#4.000.828-4#Lynne#Holloway#$801.034#DAN#stiff
7590218#4.000.957-4#JIV#DEL#19610421#$4.064.539#19880323#19.646.441-7#Franklin#Fleming#4.000.957-4#Leon#Bryan#19570409#1#1#caching#4.000.957-4#Alvin#Hart#$1.464.918#AER#preparative
5159102#4.000.984-1#INS#TEM#20090913#$2.680.048#19911107#5.416.994-9#Hector#Brown#4.000.984-1#Dorothy#Stone#19590818#6#2#aforethought#4.000.984-1#Ollie#Stone#$4.447.333#EMB#depressible
9117188#4.00k0.797-0#SEX#TEM#20040120#$3.141.510#20130908#4.000.797-0#Estelle#Wheeler#11.096.157-K#Kristine#Massey#19190301#1#2#Antigone#4.000.797-0#Leon#Obrien#$209.215#MIL#bloom
8072274#4.0g00.828-4#TEL#WIN#19150831#$8.089.031#19300319#4.000.828-4#Ryan#Rios#8.320.088-K#Louis#Alvarez#20140116#3#2#syrinx#4.000.828-4#Lynne#Holloway#$801.034#DAN#stiff